Stout_Case_Study
…
Noticing from this graph is yes, individuals who had a higher percent of credit lines where they were never delinquent had lower interest rates. However, those that had a lower percentage of non-delinquent lines of credit also show lower interest rates. I would think those that are more typically delinquent, should have higher levels of interest because they are not reliable in paying back their loans.

loans2 <- loans %>% 
  filter(application_type == "individual") %>% 
  select(-application_type, -annual_income_joint, -verification_income_joint, -debt_to_income_joint)  

loans2

## # A tibble: 8,505 x 51
##    emp_title              emp_length state homeownership annual_income verified_income
##    <chr>                       <dbl> <chr> <chr>                 <dbl> <chr>          
##  1 global config engineer          3 NJ    MORTGAGE              90000 Verified       
##  2 warehouse office clerk         10 HI    RENT                  40000 Not Verified   
##  3 assembly                        3 WI    RENT                  40000 Source Verified
##  4 customer service                1 PA    RENT                  30000 Not Verified   
##  5 <NA>                           NA KY    OWN                   34000 Not Verified   
##  6 police                         10 AZ    MORTGAGE             110000 Source Verified
##  7 parts                          10 NV    MORTGAGE              65000 Source Verified
##  8 4th person                      3 IL    RENT                  30000 Not Verified   
##  9 supervisor                     10 IL    MORTGAGE              75000 Verified       
## 10 register nurse                  2 FL    MORTGAGE              91900 Source Verified
## # ... with 8,495 more rows, and 45 more variables: debt_to_income <dbl>,
## #   delinq_2y <dbl>, months_since_last_delinq <dbl>,
## #   earliest_credit_line <dbl>, inquiries_last_12m <dbl>,
## #   total_credit_lines <dbl>, open_credit_lines <dbl>,
## #   total_credit_limit <dbl>, total_credit_utilized <dbl>,
## #   num_collections_last_12m <dbl>, num_historical_failed_to_pay <dbl>,
## #   months_since_90d_late <dbl>, current_accounts_delinq <dbl>, ...
…
loans_recipe %>% 
  prep(loans_training) %>%
  juice() 

## # A tibble: 6,378 x 99
##    emp_length annual_income debt_to_income delinq_2y months_since_last_delinq
##         <dbl>         <dbl>          <dbl>     <dbl>                    <dbl>
##  1      1.17         0.693          0.854     -0.311                  -0.691 
##  2      1.17        -0.700          1.15      -0.311                  -0.691 
##  3     -0.372        1.03           0.0334     2.61                   -0.431 
##  4      1.17         0.264         -1.00       1.15                   -0.258 
##  5     -1.40        -0.731         -1.82      -0.311                  -0.691 
##  6     -0.114       -0.700          0.608     -0.311                   1.82  
##  7     -1.14         0.264         -0.248      1.15                    0.262 
##  8     -0.372       -0.0420        -0.434      1.15                   -0.0411
##  9     -0.372       -0.991          0.584     -0.311                  -0.691 
## 10     -0.629       -0.608          0.658     -0.311                   1.99  
## # ... with 6,368 more rows, and 94 more variables: earliest_credit_line <dbl>,
## #   inquiries_last_12m <dbl>, total_credit_lines <dbl>,
## #   open_credit_lines <dbl>, total_credit_limit <dbl>,
## #   total_credit_utilized <dbl>, num_collections_last_12m <dbl>,
## #   num_historical_failed_to_pay <dbl>, months_since_90d_late <dbl>,
## #   current_accounts_delinq <dbl>, total_collection_amount_ever <dbl>,
## #   current_installment_accounts <dbl>, accounts_opened_24m <dbl>, ...
…
# The rmse for each fold:
loans_lasso_tune %>% 
  select(id, .metrics) %>% 
  unnest(.metrics) %>% 
  filter(.metric == "rmse")

## # A tibble: 80 x 6
##    id     penalty .metric .estimator .estimate .config              
##    <chr>    <dbl> <chr>   <chr>          <dbl> <chr>                
##  1 Fold1 1   e-10 rmse    standard       0.151 Preprocessor1_Model01
##  2 Fold1 3.36e-10 rmse    standard       0.151 Preprocessor1_Model02
##  3 Fold1 1.13e- 9 rmse    standard       0.151 Preprocessor1_Model03
##  4 Fold1 3.79e- 9 rmse    standard       0.151 Preprocessor1_Model04
##  5 Fold1 1.27e- 8 rmse    standard       0.151 Preprocessor1_Model05
##  6 Fold1 4.28e- 8 rmse    standard       0.151 Preprocessor1_Model06
##  7 Fold1 1.44e- 7 rmse    standard       0.151 Preprocessor1_Model07
##  8 Fold1 4.83e- 7 rmse    standard       0.151 Preprocessor1_Model08
##  9 Fold1 1.62e- 6 rmse    standard       0.151 Preprocessor1_Model09
## 10 Fold1 5.46e- 6 rmse    standard       0.151 Preprocessor1_Model10
## # ... with 70 more rows
…
loans_lasso_final_mod <- loans_lasso_final_wf %>% 
  fit(data = loans_training)

loans_lasso_final_mod %>% 
  pull_workflow_fit() %>% 
  tidy() 

## Warning: `pull_workflow_fit()` was deprecated in workflows 0.2.3.
## Please use `extract_fit_parsnip()` instead.

## # A tibble: 98 x 3
##    term                     estimate penalty
##    <chr>                       <dbl>   <dbl>
##  1 (Intercept)              12.3     0.00785
##  2 emp_length                0       0.00785
##  3 annual_income             0       0.00785
##  4 debt_to_income            0.00899 0.00785
##  5 delinq_2y                 0       0.00785
##  6 months_since_last_delinq  0       0.00785
##  7 earliest_credit_line      0       0.00785
##  8 inquiries_last_12m        0       0.00785
##  9 total_credit_lines        0       0.00785
## 10 open_credit_lines         0       0.00785
## # ... with 88 more rows
…
